<?xml version="1.0" encoding="UTF-8" standalone="no"?>
<!-- Created with Inkscape (http://www.inkscape.org/) -->

<svg
   width="150"
   height="150"
   viewBox="0 0 39.6875 39.687501"
   version="1.1"
   id="svg5"
   inkscape:version="1.1.1 (1:1.1+202109281946+c3084ef5ed)"
   sodipodi:docname="2ocg.svg"
   xmlns:inkscape="http://www.inkscape.org/namespaces/inkscape"
   xmlns:sodipodi="http://sodipodi.sourceforge.net/DTD/sodipodi-0.dtd"
   xmlns="http://www.w3.org/2000/svg"
   xmlns:svg="http://www.w3.org/2000/svg">
  <sodipodi:namedview
     id="namedview7"
     pagecolor="#505050"
     bordercolor="#eeeeee"
     borderopacity="1"
     inkscape:pageshadow="0"
     inkscape:pageopacity="0"
     inkscape:pagecheckerboard="0"
     inkscape:document-units="mm"
     showgrid="false"
     width="150px"
     units="px"
     inkscape:zoom="3.9786542"
     inkscape:cx="55.923433"
     inkscape:cy="60.070564"
     inkscape:window-width="1920"
     inkscape:window-height="1053"
     inkscape:window-x="0"
     inkscape:window-y="27"
     inkscape:window-maximized="1"
     inkscape:current-layer="layer1" />
  <defs
     id="defs2" />
  <g
     inkscape:label="Warstwa 1"
     inkscape:groupmode="layer"
     id="layer1">
    <ellipse
       style="fill:#008057;fill-rule:evenodd;stroke:#004551;stroke-width:0.520532;stroke-miterlimit:4;stroke-dasharray:none;stroke-opacity:1;fill-opacity:1"
       id="path37"
       cx="19.843922"
       cy="19.831699"
       rx="19.532822"
       ry="19.568388" />
    <text
       xml:space="preserve"
       style="font-style:normal;font-weight:normal;font-size:19.7556px;line-height:1.25;font-family:sans-serif;fill:#372634;fill-opacity:1;stroke:none;stroke-width:0.264583"
       x="13.025323"
       y="19.800274"
       id="text8347"><tspan
         sodipodi:role="line"
         id="tspan8345"
         style="font-style:normal;font-variant:normal;font-weight:bold;font-stretch:normal;font-size:19.7556px;font-family:sans-serif;-inkscape-font-specification:'sans-serif Bold';fill:#372634;fill-opacity:1;stroke-width:0.264583"
         x="13.025323"
         y="19.800274">2</tspan></text>
    <text
       xml:space="preserve"
       style="font-style:normal;font-weight:normal;font-size:12.7px;line-height:1.25;font-family:sans-serif;fill:#312634;fill-opacity:1;stroke:none;stroke-width:0.264583"
       x="15.397829"
       y="32.799061"
       id="text32577"><tspan
         sodipodi:role="line"
         id="tspan32575"
         style="font-size:12.7px;stroke-width:0.264583;fill:#312634;fill-opacity:1"
         x="15.397829"
         y="32.799061">&amp;</tspan></text>
  </g>
</svg>
