<?xml version="1.0" encoding="UTF-8" standalone="no"?>
<!-- Created with Inkscape (http://www.inkscape.org/) -->

<svg
   width="234"
   height="153"
   viewBox="0 0 61.912521 40.481276"
   version="1.1"
   id="svg5"
   inkscape:version="1.1.1 (1:1.1+202109281946+c3084ef5ed)"
   sodipodi:docname="50ogc.svg"
   xmlns:inkscape="http://www.inkscape.org/namespaces/inkscape"
   xmlns:sodipodi="http://sodipodi.sourceforge.net/DTD/sodipodi-0.dtd"
   xmlns="http://www.w3.org/2000/svg"
   xmlns:svg="http://www.w3.org/2000/svg">
  <sodipodi:namedview
     id="namedview7"
     pagecolor="#505050"
     bordercolor="#eeeeee"
     borderopacity="1"
     inkscape:pageshadow="0"
     inkscape:pageopacity="0"
     inkscape:pagecheckerboard="false"
     inkscape:document-units="mm"
     showgrid="false"
     units="px"
     width="100px"
     inkscape:zoom="3.0075196"
     inkscape:cx="56.358734"
     inkscape:cy="79.799978"
     inkscape:window-width="1920"
     inkscape:window-height="1053"
     inkscape:window-x="0"
     inkscape:window-y="27"
     inkscape:window-maximized="1"
     inkscape:current-layer="layer2" />
  <defs
     id="defs2" />
  <g
     inkscape:groupmode="layer"
     id="layer2"
     inkscape:label="tło"
     style="display:none">
    <rect
       style="fill:#b5b0e5;fill-opacity:1;stroke:none;stroke-width:1.465;stroke-linecap:round;stroke-linejoin:round;stroke-miterlimit:4;stroke-dasharray:2.93, 2.93;stroke-dashoffset:0;stroke-opacity:1"
       id="rect65399"
       width="66.18129"
       height="44.397602"
       x="-2.2333264"
       y="-1.9042888" />
  </g>
  <g
     inkscape:label="Warstwa 1"
     inkscape:groupmode="layer"
     id="layer1">
    <rect
       style="fill:none;fill-rule:evenodd;stroke:#3a75a7;stroke-width:1.465;stroke-linecap:round;stroke-linejoin:round;stroke-miterlimit:4;stroke-dasharray:2.93, 2.93;stroke-dashoffset:0;stroke-opacity:1"
       id="rect848"
       width="57.800968"
       height="36.423107"
       x="2.0343707"
       y="1.7498164" />
    <text
       xml:space="preserve"
       style="font-style:normal;font-weight:normal;font-size:10.5833px;line-height:1.25;font-family:sans-serif;fill:#3a75a7;fill-opacity:1;stroke:none;stroke-width:0.264583"
       x="4.3869896"
       y="11.834515"
       id="text15218"><tspan
         sodipodi:role="line"
         id="tspan15216"
         style="fill:#3a75a7;fill-opacity:1;stroke-width:0.264583"
         x="4.3869896"
         y="11.834515">50</tspan></text>
    <text
       xml:space="preserve"
       style="font-style:normal;font-weight:normal;font-size:10.5833px;line-height:1.25;font-family:sans-serif;fill:#3a75a7;fill-opacity:1;stroke:none;stroke-width:0.264583"
       x="44.880966"
       y="35.948311"
       id="text15218-2"><tspan
         sodipodi:role="line"
         id="tspan15216-5"
         style="fill:#3a75a7;fill-opacity:1;stroke-width:0.264583"
         x="44.880966"
         y="35.948311">50</tspan></text>
    <text
       xml:space="preserve"
       style="font-style:normal;font-weight:normal;font-size:10.5833px;line-height:1.25;font-family:sans-serif;fill:#3a75a7;fill-opacity:1;stroke:none;stroke-width:0.264583"
       x="5.1344423"
       y="36.761246"
       id="text31335"><tspan
         sodipodi:role="line"
         id="tspan31333"
         style="fill:#3a75a7;fill-opacity:1;stroke-width:0.264583"
         x="5.1344423"
         y="36.761246">Ə</tspan></text>
    <text
       xml:space="preserve"
       style="font-style:normal;font-weight:normal;font-size:10.5833px;line-height:1.25;font-family:sans-serif;fill:#3a75a7;fill-opacity:1;stroke:none;stroke-width:0.264583"
       x="49.480206"
       y="11.0568"
       id="text31335-5"><tspan
         sodipodi:role="line"
         id="tspan31333-4"
         style="fill:#3a75a7;fill-opacity:1;stroke-width:0.264583"
         x="49.480206"
         y="11.0568">Ə</tspan></text>
    <text
       xml:space="preserve"
       style="font-style:normal;font-weight:normal;font-size:25.4px;line-height:1.25;font-family:sans-serif;letter-spacing:0px;fill:#8d92ea;fill-opacity:1;stroke:none;stroke-width:0.264583"
       x="21.297224"
       y="28.565853"
       id="text43522"><tspan
         sodipodi:role="line"
         id="tspan43520"
         style="font-size:25.4px;fill:#8d92ea;fill-opacity:1;stroke-width:0.264583"
         x="21.297224"
         y="28.565853">&amp;</tspan></text>
  </g>
</svg>
